[gd_scene load_steps=3 format=3 uid="uid://ce2c4qbg1p1qs"]

[ext_resource type="PackedScene" uid="uid://cnxes5i2bennr" path="res://Scenes/Actors/Goat_Eater.tscn" id="1_f4c6m"]
[ext_resource type="Script" path="res://Scripts/Encounters/GoatEaterEncounter.cs" id="1_travv"]

[node name="GoatEaterEncounter" type="Node3D"]
script = ExtResource( "1_travv" )
EncounterName = "Goat-Eater"

[node name="Goat_Eater" parent="." instance=ExtResource( "1_f4c6m" )]
